Chapter 3 Data transformation | NYC Motor Vehicle Crashes Analysis
…
##  [1] "Date"  "Time"  "BOR"   "ZIP"   "LAT"   "LONG"  "LOC"   "ONSN"  "CRSN" 
## [10] "OFFSN" "#PI"   "#PK"   "#PEDI" "#PEDK" "#CI"   "#CK"   "#MI"   "#MK"  
## [19] "CFV1"  "CFV2"  "CFV3"  "CFV4"  "CFV5"  "id"    "VTC1"  "VTC2"  "VTC3" 
## [28] "VTC4"  "VTC5"

## # A tibble: 112,890 x 32
##    Date       Time   BOR     ZIP   LAT  LONG LOC   ONSN  CRSN  OFFSN `#PI` `#PK`
##    <date>     <time> <chr> <dbl> <dbl> <dbl> <chr> <chr> <chr> <chr> <dbl> <dbl>
##  1 2020-01-21 15:49  <NA>     NA  NA    NA   <NA>  BRUC~ "\u0~ <NA>      0     0
##  2 2020-12-31 16:30  <NA>     NA  NA    NA   <NA>  BELT~  <NA> <NA>      0     0
##  3 2020-12-25 20:19  <NA>     NA  NA    NA   <NA>  BRON~  <NA> <NA>      0     0
##  4 2020-04-15 15:20  <NA>     NA  40.7 -74.0 (40.~ GOWA~  <NA> <NA>      0     0
##  5 2020-10-25 02:00  <NA>     NA  NA    NA   <NA>  BELT~  <NA> <NA>      0     0
##  6 2020-11-11 16:33  <NA>     NA  NA    NA   <NA>  TRIB~  <NA> <NA>      0     0
##  7 2020-04-17 01:50  MANH~ 10019  40.8 -74.0 (40.~ 11 A~ "WES~ <NA>      1     0
##  8 2020-12-18 07:00  <NA>     NA  NA    NA   <NA>  HORA~ "EAS~ <NA>      0     0
##  9 2020-09-06 18:05  <NA>     NA  40.8 -73.8 (40.~ WHIT~  <NA> <NA>      0     1
## 10 2020-12-13 18:35  <NA>     NA  NA    NA   <NA>  12 A~  <NA> <NA>      0     0
## # ... with 112,880 more rows, and 20 more variables: #PEDI <dbl>, #PEDK <dbl>,
## #   #CI <dbl>, #CK <dbl>, #MI <dbl>, #MK <dbl>, CFV1 <chr>, CFV2 <chr>,
## #   CFV3 <chr>, CFV4 <chr>, CFV5 <chr>, id <dbl>, VTC1 <chr>, VTC2 <chr>,
## #   VTC3 <chr>, VTC4 <chr>, VTC5 <chr>, Day <chr>, Month <chr>, Year <chr>
