Chapter 4 Missing values | NYC Motor Vehicle Crashes Analysis
…
## 5       13  3094
## 6       12  6920
## 7       11  4347
## 8       10 25781
## 9        9 15704
## 10       8 20253
## 11       7 28309
## 12       6  2441
## 13       5  2472
## 14       4   748
## 15       3   632
## 16       2   232
## 17       1   296

## # A tibble: 30 × 2
##    na_cols                        count
##    <chr>                          <int>
##  1 VEHICLE.TYPE.CODE.5           112065
##  2 CONTRIBUTING.FACTOR.VEHICLE.5 112037
##  3 VEHICLE.TYPE.CODE.4           110106
##  4 CONTRIBUTING.FACTOR.VEHICLE.4 109980
##  5 VEHICLE.TYPE.CODE.3           102794
##  6 CONTRIBUTING.FACTOR.VEHICLE.3 102183
##  7 OFF.STREET.NAME                83436
##  8 CROSS.STREET.NAME              59616
##  9 ZIP.CODE                       39229
## 10 BOROUGH                        39221
## # … with 20 more rows
…
